COMET qPCR_Validation_Report
…
sub_qpcr <- qpcr_data %>%
  filter(!(Sample == "BMM-0043"       & PCR_plate == "06.11.19-2")) %>% # Discard duplicates
  filter(!(Sample == "COMET-0122M2-2" & PCR_plate == "06.11.19-2")) %>% # Discard duplicates
  filter(!(Sample == "BMM-0063"       & PCR_plate == "05.11.19-1")) %>% # Discard duplicates
  filter(!(Sample == "COMET-0134M1-1" & PCR_plate == "05.11.19-1")) %>% # Discard duplicates
  subset(PCR_plate %in% plates) %>%
  spread(key='miRNA', value='Cq_value')
sub_qpcr <- drop_na(sub_qpcr) # Drop na values

sub_qpcr['dCq'] <- sub_qpcr[target_miRNA] - sub_qpcr[reference]#(sub_qpcr[HK_miRNA_1] + sub_qpcr[HK_miRNA_2])/2
sub_qpcr <- gather(sub_qpcr, key="miRNA", value = "Cq_value", c(target_miRNA, reference))

sub_qpcr

## # A tibble: 44 x 6
##    Sample   PCR_plate  tissue_type      dCq miRNA          Cq_value
##    <chr>    <chr>      <chr>          <dbl> <chr>             <dbl>
##  1 BMM-0043 05.11.19-1 tumor_colorect  3.09 Hsa-Mir-210_3p     30.1
##  2 BMM-0044 05.11.19-1 tumor_colorect  7.46 Hsa-Mir-210_3p     33.6
##  3 BMM-0050 05.11.19-1 tumor_colorect  3.30 Hsa-Mir-210_3p     30.6
##  4 BMM-0053 05.11.19-1 tumor_colorect  3.81 Hsa-Mir-210_3p     31.4
##  5 BMM-0054 05.11.19-1 tumor_colorect  4.80 Hsa-Mir-210_3p     31.7
##  6 BMM-0056 05.11.19-1 tumor_colorect  5.70 Hsa-Mir-210_3p     32.3
##  7 BMM-0063 06.11.19-2 tumor_colorect  5.35 Hsa-Mir-210_3p     32.9
##  8 BMM-0129 06.11.19-2 tumor_colorect  5.65 Hsa-Mir-210_3p     33.6
##  9 BMM-0138 06.11.19-2 tumor_colorect  6.70 Hsa-Mir-210_3p     34.4
## 10 BMM-0145 06.11.19-2 tumor_colorect  6.61 Hsa-Mir-210_3p     32.6
## #  with 34 more rows
…
